{
    "add_repo": {
        "intro": "پویش رمزهای QR از مخازنی که می‌خواهید از افزاره یا پایگاه‌های وبی که در آن‌ها پیدا می‌شوند بیفزایید.",
        "no_internet": "اینترنت ندارید؟ بیاموزید <a href=\"../swap/\">چگونه کاره‌ها را به صورت برون‌خط ارسال و دریافت کنید.</a>",
        "open_repo_link": {
            "description": "اگر پیوند مخزنی با رایانامه، رسانهٔ احتماعی یا پیامک فرستاده شد، امکان نصب کاره‌های درونش به اف‌دروید را با گشودنش می‌افزاید.",
            "short_summary": "گشودن پیوند مخزن",
            "steps": {
                "step_1": "اف‌دروید را روی افزارهٔ اندرویدیتان بارگیری و نصب کنید.",
                "step_2": "روی پیوند کلیک کرده و آن را در مرورگر وبی روی افزاره‌تان بگشایید.",
                "step_3": "هنگامی که پیوند را گشودید، دکمهٔ «افزودن به اف‌دروید» را بزنید.",
                "step_4": "دکمهٔ «اف‌دروید دارم» را بزنید. کارهٔ اف‌دروید گشوده خواهد شد.",
                "step_5": "«افزودن مخزن جدید» با نشانی مخزن از پیش پر شده‌اش نشان داده خواهد شد. برای افزودنش «قبول» را بزنید.",
                "step_6": "مخزن جدیدتان افزوده خواهد شد. برای دیدن فهرستی از مخزن‌هایتان «تنظیمات» را گشوده و «مخزن‌ها» را برگزینید.",
                "step_7": "برای دیدن محتویات یک مخزن، رویش بزنید.",
                "step_8": "کاره‌هایی که می‌خواهید داشته باشید را گزیده و آن‌ها را روی افزاره‌تان نصب کنید."
            },
            "title": "گشودن پیوند مخزن روی افزاره‌تان"
        },
        "overview": {
            "summary": "برای گرفتن محتوای بیش‌تر، مخزنی به اف‌دروید بیفزایید. مخزن، مجموعه‌ای از محتواست. می‌توانید مخازن دیگران را مستقیم از خودشان بیابید. توسعه‌دهنده‌ها اغلب در پایگاه وبشان به مخزن اف‌درویدشان پیوند می‌دهند. مربّی‌ها اغلت پیوندهای مخازن را با رایانامه و شبکه‌های احتماعی، هم‌رسانی می‌کنند.",
            "title": "گرفتن محتوای بیش‌تر."
        },
        "scan_qr_code": {
            "description": "رمزهای QR را از مخزن‌هایی که می‌خواهید از افزاره یا پایگاه‌های وبی که در آن‌ها یافت می‌شوند بیفزایید، بپویید.",
            "related_tutorial": "ممکن است به <a href=\"../swap/\">چگونگی ارسال و دریافت کاره‌ها به صورت برون‌خط</a> علاقه داشته باشید",
            "short_summary": "پویش رمز QR",
            "steps": {
                "step_1": "هنگامی که رمز QR مخزن نمایش داده شد، آن را با یک کارهٔ پویشگر QR، بپویید.",
                "step_2": "روی پیوند بزنید. اگر انتخابش بودپویند را با اف‌دروید بگشایید. سپس دستورات را دنبال کنید. اگر کار کارد، تمام است! وگرنه به مرحلهٔ بعد بروید.",
                "step_3": "اگر انتخاب گشودن پیوند با اف‌دروید را نداشتید، پویشگر QR را بسته و کارهٔ اف‌دروید را بگشایید.",
                "step_4": "درون اف‌دروید «تنظیمات» را زده و «مخزن‌ها» را در زیر «برنامه‌های من» برگزینید.",
                "step_5": "در صفحهٔ مخزن‌ها، نقشک «+» در گوشهٔ بالا را بزنید.",
                "step_6": "نشانی مخزن به صورت خودکار پر خواهد شد. «فعّال سازی» را بزنید. نکته: مخزن در مخزن‌های اف‌دروید ذخیره خواهد شد، ولی تا زمانی که به صورت دستی انتخاب و نصب نکنید، کاره‌ای نصب نخواهد شد."
            },
            "title": "پویش یک رمز QR از افزاره‌ای دیگر"
        },
        "title": "چگونگی افزودن مخزن به اف‌دروید"
    },
    "create_repo": {
        "customize_repo": {
            "title": "مخزنتان را شخصی‌سازی کنید"
        },
        "overview": {
            "summary": "مخزن کاره‌های شخصی‌شدهٔ خودتان را بسازید. از اف‌دروید برای توزیع محتوا استفاده کنید.مربّی‌ها برای هم‌رسانی مجموعه‌ای از منابع و کاره‌ها با شرکت‌کنندگان هنگام نبودن اتّصال اینترنتی قابل اطمینان در یک آموزش، از مخزن‌ها استفاده می‌کنند. توسعه‌دهندگان از مخازن برای توزیع کاره‌هایشان به دیگران استفاده می‌کنند.",
            "title": "افزودن کاره‌ها و پرونده‌های خودتان."
        },
        "related_tutorial": "ممکن است به <a href=\"../add-repo/\">چگونگی افزودن مخزنی به اف‌دروید</a> علاقه‌مند باشید",
        "title": "چگونگی ایجاد یک مخزن"
    },
    "misc": {
        "option_x_description": "گزینهٔ {{ number }}: {{ description }}",
        "overview": {
            "summary": "اف‌دروید فروشگاه کاره‌ای مستقل و مبتنی بر جامعه برای اندروید بوده که کاملاً نرم‌افزار آزاد است. با اف‌دروید می‌توانید بیش از ۱٫۲۰۰ کارهٔ آزاد را از میان مخازن موجود مرور، جست‌وجو و نصب کرده، یا مخازن خودتان را بسازید. برای بارگیری کاره و شروع به کار f-droid.org را روی افزارهٔ اندرویدیتان بگشایید!",
            "title": "با اف‌دروید می‌شود چه‌کار کرد",
            "tutorial_x_title": "آموزش {{ number }}: {{ title }}"
        },
        "step_x": "گام {{ number }}",
        "step_x_description": "گام {{ number }}: {{ description }}"
    },
    "swap": {
        "overview": {
            "summary": "اینترنت ندارید؟ مشکلی نیست. اطرافیان اف‌دروید می‌گذارد محتوا رابا افرادی در بک مکان، هم‌رسانی کنید.",
            "title": "ارسال و دریافت برون‌خط کاره‌ها."
        },
        "related_tutorial": "ممکن است همچنین به <a href=\"../create-repo/\">چگونگی ساخت یک مخزن</a> علاقه‌مند باشید",
        "title": "چگونه کاره‌ها را به صورت برون‌خط ارسال و دریافت کنید"
    }
}
